;Scottish TMA (D) 1 Class C 4500-FL245
Scottish TMA                N055.37.00.000 W004.28.47.000 N055.41.25.000 W004.10.17.000
Scottish TMA                N055.41.25.000 W004.10.17.000 N055.41.25.000 W002.55.10.000
Scottish TMA                N055.41.25.000 W002.55.10.000 N055.33.02.000 W004.29.18.000
Scottish TMA                N055.33.02.000 W004.29.18.000 N055.37.00.000 W004.28.47.000

;Scottish TMA (D) 2 Class C 5500-FL245
Scottish TMA                N055.43.34.000 W005.00.00.000 N055.33.02.000 W004.29.18.000
Scottish TMA                N055.33.02.000 W004.29.18.000 N055.41.25.000 W002.55.10.000
Scottish TMA                N055.41.25.000 W002.55.10.000 N055.27.00.000 W003.00.00.000
Scottish TMA                N055.27.00.000 W003.00.00.000 N055.06.03.000 W004.14.19.000
Scottish TMA                N055.06.03.000 W004.14.19.000 N055.12.14.000 W005.02.34.000
Scottish TMA                N055.12.14.000 W005.02.34.000 N055.15.11.000 W005.00.00.000
Scottish TMA                N055.15.11.000 W005.00.00.000 N055.43.34.000 W005.00.00.000

;Scottish TMA (D) 3 Class C 6000-FL245
Scottish TMA                N056.14.00.000 W004.09.26.000 N056.14.00.000 W003.32.59.000
Scottish TMA                N056.14.00.000 W003.32.59.000 N056.07.00.000 W003.29.38.000
Scottish TMA                N056.07.00.000 W003.29.38.000 N056.07.00.000 W002.56.08.000
Scottish TMA                N056.07.00.000 W002.56.08.000 N056.00.08.000 W002.48.49.000
Scottish TMA                N056.00.08.000 W002.48.49.000 N055.41.25.000 W002.55.10.000
Scottish TMA                N055.41.25.000 W002.55.10.000 N055.41.25.000 W004.10.17.000
Scottish TMA                N055.41.25.000 W004.10.17.000 N055.37.00.000 W004.28.47.000
Scottish TMA                N055.37.00.000 W004.28.47.000 N055.44.28.000 W004.50.35.000
Scottish TMA                N055.44.28.000 W004.50.35.000 N055.43.36.000 W005.00.00.000
Scottish TMA                N055.43.36.000 W005.00.00.000 N055.50.00.000 W005.00.00.000
Scottish TMA                N055.50.00.000 W005.00.00.000 N056.00.00.000 W004.44.00.000
Scottish TMA                N056.00.00.000 W004.44.00.000 N056.14.00.000 W004.09.26.000

;Scottish TMA (D) 4 Class C 5500-FL245
Scottish TMA                N056.00.08.000 W002.48.49.000 N055.31.00.000 W002.51.56.000
Scottish TMA                N055.31.00.000 W002.51.56.000 N055.27.00.000 W003.00.00.000
Scottish TMA                N055.27.00.000 W003.00.00.000 N056.00.08.000 W002.48.49.000

;Scottish TMA (D) 5 Class C 3500-FL245
Scottish TMA                N055.44.28.000 W004.50.35.000 N055.37.00.000 W004.28.47.000
Scottish TMA                N055.37.00.000 W004.28.47.000 N055.33.02.000 W004.29.18.000
Scottish TMA                N055.33.02.000 W004.29.18.000 N055.43.34.000 W005.00.00.000
Scottish TMA                N055.43.34.000 W005.00.00.000 N055.44.28.000 W004.50.35.000

;Scottish TMA (E) 5 Class E 3000-6000
Scottish TMA                N055.55.00.000 W004.52.00.000 N055.46.00.000 W004.49.51.000
Scottish TMA                N055.46.00.000 W004.49.51.000 N055.44.28.000 W004.50.35.000
Scottish TMA                N055.44.28.000 W004.50.35.000 N055.43.36.000 W005.00.00.000
Scottish TMA                N055.43.36.000 W005.00.00.000 N055.50.00.000 W005.00.00.000
Scottish TMA                N055.50.00.000 W005.00.00.000 N055.55.00.000 W004.52.00.000

;Scottish TMA (E) 6 Class E 4000-6000
Scottish TMA                N056.14.00.000 W004.09.26.000 N056.14.00.000 W003.32.59.000
Scottish TMA                N056.14.00.000 W003.32.59.000 N056.07.00.000 W003.29.38.000
Scottish TMA                N056.07.00.000 W003.29.38.000 N056.07.00.000 W004.09.10.000
Scottish TMA                N056.07.00.000 W004.09.10.000 N055.55.00.000 W004.52.00.000
Scottish TMA                N055.55.00.000 W004.52.00.000 N056.00.00.000 W004.44.00.000
Scottish TMA                N056.00.00.000 W004.44.00.000 N056.14.00.000 W004.09.26.000