ADN 114.300 N057.18.37.620 W002.16.01.950 ; Aberdeen
BKY 116.250 N051.59.23.000 E000.03.43.000 ; Barkway
BEL 117.200 N054.39.40.120 W006.13.47.660 ; Belfast
BEN 113.950 N057.28.40.570 W007.21.55.080 ; Benbecula
BCL 108.100 N057.28.30.310 W007.22.13.160 ; Benbecula (DME)
BHD 112.050 N050.23.55.000 W003.29.37.000 ; Berry Head
BIG 115.100 N051.19.51.150 E000.02.05.320 ; Biggin
BNN 113.750 N051.43.34.000 W000.32.59.000 ; Bovingdon
BCN 117.450 N051.43.32.000 W003.15.47.000 ; Brecon
BPK 117.500 N051.44.59.000 W000.06.24.000 ; Brookmans Park
CLN 114.550 N051.50.55.000 E001.08.51.000 ; Clacton
CPT 114.350 N051.29.30.000 W001.13.11.000 ; Compton
;CFD 116.500 N052.04.27.180 W000.36.38.850 ; Cranfield (withdrawn)
DTY 116.400 N052.10.49.000 W001.06.50.000 ; Daventry
DCS 115.200 N054.43.19.000 W003.20.26.000 ; Dean Cross
DET 117.300 N051.18.14.000 E000.35.50.000 ; Detling
DVR 114.950 N051.09.45.000 E001.21.33.000 ; Dover
GAM 112.800 N053.16.53.000 W000.56.50.000 ; Gamston
GOW 115.400 N055.52.13.810 W004.26.44.610 ; Glasgow
GWC 114.750 N050.51.18.780 W000.45.24.250 ; Goodwood
HON 113.650 N052.21.24.000 W001.39.49.000 ; Honiley
INS 109.200 N057.32.33.450 W004.02.29.550 ; Inverness
IOM 112.200 N054.04.00.720 W004.45.48.510 ; Isle of Man
JSY 112.200 N049.13.15.970 W002.02.46.150 ; Jersey
LAM 115.600 N051.38.46.000 E000.09.06.000 ; Lambourne
LND 114.200 N050.08.11.000 W005.38.13.000 ; Lands End
LON 113.600 N051.29.14.000 W000.28.00.000 ; London
LYD 114.050 N050.59.59.000 E000.52.43.000 ; Lydd
MAC 116.000 N055.25.48.080 W005.39.01.490 ; Machrihanish (DME)
MCT 113.550 N053.21.25.290 W002.15.44.240 ; Manchester
MAY 117.900 N051.01.02.000 E000.06.58.000 ; Mayfield
MID 114.000 N051.03.14.000 W000.37.30.000 ; Midhurst
NEW 114.250 N055.02.18.410 W001.41.54.130 ; Newcastle (DME)
OCK 115.300 N051.18.18.000 W000.26.50.000 ; Ockham
OTR 113.900 N053.41.54.000 W000.06.13.000 ; Ottringham
PTH 110.400 N056.26.33.000 W003.22.07.000 ; Perth
POL 112.100 N053.44.38.000 W002.06.12.000 ; Pole Hill
SAB 112.500 N055.54.27.000 W002.12.23.000 ; Saint Abbs
SFD 117.000 N050.45.38.000 E000.07.19.000 ; Seaford
SAM 113.350 N050.57.18.900 W001.20.42.200 ; Southampton
STN 115.100 N058.12.25.010 W006.10.58.970 ; Stornoway
STU 113.100 N051.59.41.000 W005.02.25.000 ; Strumble
SUM 117.350 N059.52.43.520 W001.17.11.520 ; Sumburgh
TLA 113.800 N055.29.57.000 W003.21.10.000 ; Talla
TIR 117.700 N056.29.35.560 W006.52.32.120 ; Tiree
TNT 115.700 N053.03.14.000 W001.40.12.000 ; Trent
TRN 117.500 N055.18.48.000 W004.47.02.000 ; Turnberry
WAL 114.100 N053.23.31.000 W003.08.04.000 ; Wallasey
WIK 113.600 N058.27.31.740 W003.06.01.330 ; Wick