SECTORLINE:LTC1
DISPLAY:London TC NW:London TC NW:London AC Daventry
DISPLAY:London AC Daventry:London AC Daventry:London TC NW
DISPLAY:London AC Worthing:London AC Daventry:London TC NW
DISPLAY:London AC Dover:London AC Daventry:London TC NW
DISPLAY:London AC Clacton:London AC Daventry:London TC NW
COORD:N051.39.43.000:W001.26.46.000
COORD:N051.43.19.000:W001.28.37.000
COORD:N051.54.21.000:W001.02.57.000
COORD:N051.58.59.000:W000.52.02.000
COORD:N052.11.04.000:W000.21.59.000

SECTORLINE:LTC2
DISPLAY:London TC NW:London TC NW:London TC NE
DISPLAY:London TC NE:London TC NE:London TC NW
DISPLAY:London AC Daventry:London TC NW:London TC NE
DISPLAY:London AC Clacton:London TC NW:London TC NE
COORD:N052.11.04.000:W000.21.59.000
COORD:N051.56.19.000:W000.07.48.000

SECTORLINE:LTC3
DISPLAY:London TC NE:London TC NE:London AC Clacton
DISPLAY:London AC Daventry:London AC Clacton:London TC NE
DISPLAY:London AC Clacton:London AC Clacton:London TC NE
COORD:N052.11.04.000:W000.21.59.000
COORD:N052.11.04.000:E000.32.42.000
COORD:N052.12.21.000:E000.48.19.000
COORD:N051.58.06.000:E000.57.60.000
COORD:N052.00.45.000:E000.47.24.000
COORD:N051.45.03.000:E000.50.32.000

SECTORLINE:LTC4
DISPLAY:London TC NE:London TC NE:London AC Clacton
DISPLAY:London AC Clacton:London AC Clacton:London TC NE
DISPLAY:London AC Dover:London TC NE:London AC Clacton
COORD:N051.42.22.000:E000.09.04.000
COORD:N051.45.03.000:E000.50.32.000

SECTORLINE:LTC5
DISPLAY:London TC NE:London TC NE:London TC VATON
DISPLAY:London AC Clacton:London AC Clacton:London AC Dover
DISPLAY:London AC Dover:London TC NE:London AC Clacton
DISPLAY:London AC Dover:London AC Dover:London AC Clacton
DISPLAY:London AC Worthing:London AC Worthing:London AC Clacton
COORD:N051.56.19.000:W000.07.48.000
COORD:N051.48.01.000:E000.00.08.000
COORD:N051.42.22.000:E000.09.04.000

SECTORLINE:LTC6
DISPLAY:London TC NE:London TC NE:London TC NW
DISPLAY:London TC NW:London TC NW:London TC NE
DISPLAY:London TC SW:London TC NW:London TC NE
DISPLAY:London TC SE:London TC NW:London TC NE
DISPLAY:London AC Daventry:London TC NW:London TC NE
DISPLAY:London AC Clacton:London TC NW:London TC NE
DISPLAY:London AC Worthing:London TC NW:London TC NE
DISPLAY:London AC Dover:London TC NW:London TC NE
COORD:N051.29.04.000:W000.27.53.000
COORD:N051.48.04.000:W000.11.14.000
COORD:N051.56.19.000:W000.07.48.000

SECTORLINE:LTC7
DISPLAY:London AC Dover:London TC NE:London AC Clacton
COORD:N051.42.22.000:E000.09.04.000
COORD:N051.27.52.000:E000.10.09.000

SECTORLINE:LTC8
DISPLAY:London AC Clacton:London AC Clacton:London TC NE
DISPLAY:London TC NE:London TC NE:London AC Clacton
DISPLAY:London AC Dover:London TC NE:London AC Clacton
COORD:N051.45.03.000:E000.50.32.000
COORD:N051.44.31.000:E000.50.38.000
COORD:N051.36.18.000:E000.55.32.000
COORD:N051.34.17.000:E000.49.60.000
COORD:N051.26.47.000:E000.49.60.000

SECTORLINE:LTC9
DISPLAY:London AC Dover:London TC NE:London AC Clacton
DISPLAY:London AC Dover:London TC BIG:London TC NE
DISPLAY:London TC BIG:London TC BIG:London TC NE
DISPLAY:London TC NE:London TC NE:London TC BIG
DISPLAY:London TC VATON:London TC BIG:London TC NE
COORD:N051.27.52.000:E000.10.09.000
COORD:N051.26.47.000:E000.49.60.000

SECTORLINE:LTC10a
DISPLAY:London AC Dover:London AC Dover:London TC BIG
DISPLAY:London AC Worthing:London AC Dover:London TC BIG
DISPLAY:London TC BIG:London TC BIG:London AC Dover
DISPLAY:London TC BIG:London TC BIG:London AC Clacton
COORD:N051.26.47.000:E000.49.60.000
COORD:N051.26.58.000:E000.55.32.000
COORD:N051.26.17.000:E001.07.24.000

SECTORLINE:LTC10b
DISPLAY:London AC Dover:London AC Dover:London TC TIMBA
DISPLAY:London AC Worthing:London AC Dover:London TC TIMBA
DISPLAY:London TC TIMBA:London TC TIMBA:London AC Dover
DISPLAY:London TC BIG:London TC BIG:London AC Dover
COORD:N051.26.17.000:E001.07.24.000
COORD:N051.18.12.000:E000.49.03.000
COORD:N051.07.03.000:E000.45.41.000

SECTORLINE:LTC11
COORD:N051.07.03.000:E000.45.41.000
COORD:N051.00.50.000:E000.43.49.000
COORD:N050.44.24.000:E000.23.10.000

SECTORLINE:LTC12
DISPLAY:London TC BIG:London TC BIG:London TC TIMBA
DISPLAY:London TC TIMBA:London TC TIMBA:London TC BIG
DISPLAY:London AC Dover:London TC TIMBA:London TC BIG
DISPLAY:London AC Worthing:London TC TIMBA:London TC BIG
COORD:N051.04.43.600:W000.05.33.000
COORD:N051.07.03.000:E000.45.41.000

SECTORLINE:LTC13
DISPLAY:London TC TIMBA:London TC TIMBA:London TC WILLO
DISPLAY:London TC WILLO:London TC WILLO:London TC TIMBA
DISPLAY:London AC Worthing:London TC TIMBA:London TC WILLO
COORD:N051.04.43.600:W000.05.33.000
COORD:N050.44.24.000:E000.23.10.000

SECTORLINE:LTC14
DISPLAY:London AC Worthing:London AC Worthing:London TC WILLO
DISPLAY:London TC WILLO:London TC WILLO:London TC Worthing
COORD:N050.49.25.500:W001.15.38.000
COORD:N050.48.48.000:W000.52.14.000
COORD:N050.32.49.000:W000.35.06.000
COORD:N050.45.38.000:E000.07.19.000
COORD:N050.44.14.000:E000.20.34.000
COORD:N050.44.24.000:E000.23.10.000

SECTORLINE:LTC15a
DISPLAY:London AC Worthing:London AC Worthing:London AC Dover
DISPLAY:London AC Worthing:London TC WILLO:London TC BIG
DISPLAY:London AC Dover:London AC Dover:London AC Worthing
DISPLAY:London TC WILLO:London TC WILLO:London TC BIG
DISPLAY:London TC BIG:London TC BIG:London TC WILLO
COORD:N051.18.17.000:W000.26.47.000
COORD:N051.08.53.000:W000.11.25.000

SECTORLINE:LTC15b
DISPLAY:London AC Worthing:London TC WILLO:London TC BIG
DISPLAY:London TC WILLO:London TC WILLO:London TC BIG
DISPLAY:London TC BIG:London TC BIG:London TC WILLO
COORD:N051.08.53.000:W000.11.25.000
COORD:N051.04.43.600:W000.05.33.000

SECTORLINE:LTC16
COORD:N051.18.17.000:W000.26.47.000
COORD:N051.19.16.000:E000.01.36.500
COORD:N051.27.52.000:E000.10.09.000

SECTORLINE:LTC17
DISPLAY:London AC Dover:London TC NE:London AC Clacton
DISPLAY:London AC Dover:London TC BIG:London TC NE
DISPLAY:London TC BIG:London TC BIG:London TC NE
DISPLAY:London TC NE:London TC NE:London TC BIG
DISPLAY:London TC VATON:London TC BIG:London TC NE
COORD:N051.29.04.000:W000.27.53.000
COORD:N051.27.52.000:E000.10.09.000

SECTORLINE:LTC18
DISPLAY:London AC Worthing:London AC Worthing:London AC Dover
DISPLAY:London AC Worthing:London TC OCK:London TC BIG
DISPLAY:London AC Dover:London AC Dover:London AC Worthing
DISPLAY:London TC OCK:London TC OCK:London TC BIG
DISPLAY:London TC BIG:London TC BIG:London TC OCK
COORD:N051.29.04.000:W000.27.53.000
COORD:N051.18.17.000:W000.26.47.000

SECTORLINE:LTC19a
DISPLAY:London TC OCK:London TC OCK:London TC CPT
DISPLAY:London TC CPT:London TC CPT:London TC OCK
COORD:N051.11.17.000:W001.06.36.000
COORD:N051.17.35.000:W001.03.35.000
COORD:N051.30.37.000:W000.38.30.000

SECTORLINE:LTC19b
DISPLAY:London TC OCK:London TC OCK:London AC Worthing
DISPLAY:London AC Worthing:London AC Worthing:London TC OCK
COORD:N050.49.28.000:W001.17.14.000
COORD:N050.55.38.000:W001.13.13.000
COORD:N051.11.17.000:W001.06.36.000

SECTORLINE:LTC20
DISPLAY:London TC OCK:London TC OCK:London AC Worthing
DISPLAY:London AC Worthing:London AC Worthing:London TC OCK
COORD:N050.55.11.700:W001.30.48.700
COORD:N050.49.44.390:W001.34.35.400
COORD:N050.49.28.000:W001.17.14.000

SECTORLINE:LTC21a
DISPLAY:London S5:London S5:London AC Worthing
DISPLAY:London S23:London S23:London AC Worthing
DISPLAY:London S35:London S35:London AC Worthing
DISPLAY:London AC Worthing:London AC Worthing:London TC OCK
DISPLAY:London TC CPT:London TC CPT:London S23
COORD:N051.39.43.000:W001.26.46.000
COORD:N051.36.01.000:W001.24.53.000
COORD:N051.35.32.000:W001.21.02.000
COORD:N051.16.17.000:W001.20.57.000
COORD:N051.13.50.000:W001.21.59.000

SECTORLINE:LTC21b
DISPLAY:London TC OCK:London TC OCK:London AC Worthing
DISPLAY:London AC Worthing:London AC Worthing:London TC OCK
COORD:N051.13.50.000:W001.21.59.000
COORD:N050.58.58.000:W001.28.10.000
COORD:N050.55.11.700:W001.30.48.700

SECTORLINE:LTC22a
DISPLAY:London TC OCK:London TC OCK:London AC Worthing
DISPLAY:London AC Worthing:London AC Worthing:London TC OCK
COORD:N050.55.11.700:W001.30.48.700
COORD:N050.53.34.000:W001.40.51.000
COORD:N051.00.38.000:W001.35.41.000
COORD:N051.13.06.000:W001.30.31.000

SECTORLINE:LTC22b
DISPLAY:London S23:London S23:London TC OCK
DISPLAY:London TC OCK:London TC OCK:London S23
DISPLAY:London TC OCK:London TC OCK:London AC Worthing
DISPLAY:London AC Worthing:London AC Worthing:London TC OCK
COORD:N051.13.06.000:W001.30.31.000
COORD:N051.18.37.792:W001.28.13.800
COORD:N051.26.24.000:W001.29.33.000
COORD:N051.40.55.000:W001.34.58.000

SECTORLINE:LTC22c
DISPLAY:London S5:London S5:London AC Daventry
DISPLAY:London S23:London S23:London AC Daventry
DISPLAY:London S35:London S35:London AC Daventry
DISPLAY:London AC Daventry:London AC Daventry:London S5
DISPLAY:London AC Daventry:London AC Daventry:London S23
DISPLAY:London AC Daventry:London AC Daventry:London S35
DISPLAY:London S23:London S23:London TC OCK
DISPLAY:London TC OCK:London TC OCK:London S23
DISPLAY:London AC Daventry:London AC Daventry:London TC OCK
DISPLAY:London TC OCK:London TC OCK:London AC Daventry
DISPLAY:London TC OCK:London TC OCK:London AC Worthing
DISPLAY:London AC Worthing:London AC Worthing:London TC OCK
COORD:N051.40.55.000:W001.34.58.000
COORD:N051.39.43.000:W001.26.46.000

SECTORLINE:LTC23
DISPLAY:London TC NW:London TC NW:London TC OCK
DISPLAY:London TC OCK:London TC OCK:London TC NW
DISPLAY:London TC NW:London TC NW:London TC CPT
DISPLAY:London TC CPT:London TC CPT:London TC NW
COORD:N051.39.43.000:W001.26.46.000
COORD:N051.34.23.000:W001.11.38.000
COORD:N051.30.37.000:W000.38.30.000

SECTORLINE:LTC23b
DISPLAY:London AC Daventry:London TC NW:London TC OCK
DISPLAY:London AC Daventry:London TC NW:London TC CPT
COORD:N051.34.23.000:W001.11.38.000
COORD:N051.30.37.000:W000.38.30.000

SECTORLINE:LTC24
DISPLAY:London AC Daventry:London TC NW:London TC OCK
DISPLAY:London AC Worthing:London TC NW:London TC OCK
DISPLAY:London TC NW:London TC NW:London TC OCK
DISPLAY:London TC OCK:London TC OCK:London TC NW
COORD:N051.30.37.000:W000.38.30.000
COORD:N051.29.04.000:W000.27.53.000

SECTORLINE:LTC25
DISPLAY:London TC OCK:London TC OCK:London TC WILLO
DISPLAY:London TC WILLO:London TC WILLO:London TC OCK
DISPLAY:London AC Worthing:London TC OCK:London TC WILLO
COORD:N050.49.25.500:W001.15.38.000
COORD:N051.18.17.000:W000.26.47.000

SECTORLINE:LTC26
DISPLAY:London TC OCK:London TC OCK:London AC Worthing
DISPLAY:London AC Worthing:London AC Worthing:London TC OCK
COORD:N050.49.28.000:W001.17.14.000
COORD:N050.49.25.500:W001.15.38.000

SECTORLINE:LTC27
DISPLAY:London S5:London S5:London AC Worthing
DISPLAY:London S23:London S23:London AC Worthing
DISPLAY:London S35:London S35:London AC Worthing
DISPLAY:London AC Worthing:London AC Worthing:London S5
DISPLAY:London AC Worthing:London AC Worthing:London S23
DISPLAY:London AC Worthing:London AC Worthing:London S35
COORD:N051.13.06.000:W001.30.31.000
COORD:N051.13.50.000:W001.21.59.000

SECTORLINE:LTC28
DISPLAY:London TC VATON:London TC VATON:London AC Dover
COORD:N051.08.53.000:W000.11.25.000
COORD:N051.17.51.000:E000.10.10.000
COORD:N051.27.15.000:E000.32.60.000

SECTORLINE:LTC29
DISPLAY:London TC CPT:London TC CPT:London TC VATON
DISPLAY:London TC VATON:London TC VATON:London TC CPT
COORD:N051.42.55.900:W000.33.54.000
COORD:N051.29.04.000:W000.27.53.000

SECTORLINE:LTC30
COORD:N051.13.50.000:W001.21.59.000
COORD:N051.11.17.000:W001.06.36.000

SECTORLINE:LTC31
COORD:N051.11.17.000:W001.06.36.000
COORD:N050.46.26.000:W000.49.42.000

SECTORLINE:LTC32
COORD:N050.46.26.000:W000.49.42.000
COORD:N051.08.53.000:W000.11.25.000

SECTORLINE:LTC33
DISPLAY:London TC TIMBA:London TC TIMBA:London AC Dover
DISPLAY:London TC WILLO:London TC TIMBA:London AC Dover
DISPLAY:London AC Worthing:London TC TIMBA:London AC Dover
DISPLAY:London AC Dover:London AC Dover:London TC TIMBA
COORD:N050.44.24.000:E000.23.10.000
COORD:N050.40.00.000:E000.29.60.000
COORD:N050.53.14.000:E001.08.22.000

SECTORLINE:LTC34
DISPLAY:London TC TIMBA:London TC TIMBA:London AC Dover
DISPLAY:London AC Dover:London AC Dover:London TC TIMBA
DISPLAY:London AC Worthing:London AC Dover:London TC TIMBA
COORD:N051.07.03.000:E000.45.41.000
COORD:N050.57.23.000:E001.02.33.000
COORD:N050.53.14.000:E001.08.22.000

SECTORLINE:LTC35
DISPLAY:London TC TIMBA:London TC TIMBA:London AC Dover
DISPLAY:London AC Clacton:London AC Dover:London TC TIMBA
DISPLAY:London AC Dover:London AC Dover:London TC TIMBA
DISPLAY:London AC Worthing:London AC Dover:London TC TIMBA
COORD:N051.00.00.000:E001.27.60.000
COORD:N050.53.14.000:E001.08.22.000

SECTORLINE:LTC36
DISPLAY:London TC TIMBA:London TC TIMBA:London AC Dover
DISPLAY:London AC Clacton:London AC Dover:London TC TIMBA
DISPLAY:London AC Dover:London AC Dover:London TC TIMBA
DISPLAY:London AC Worthing:London AC Dover:London TC TIMBA
COORD:N051.24.24.000:E001.37.27.000
COORD:N051.18.25.000:E001.35.18.000
COORD:N051.00.00.000:E001.27.60.000

SECTORLINE:LTC37
DISPLAY:London TC WILLO:London TC WILLO:London AC Clacton
DISPLAY:London TC WILLO:London TC WILLO:London AC Dover
DISPLAY:London AC Clacton:London AC Dover:London TC WILLO
DISPLAY:London AC Dover:London AC Dover:London TC WILLO
DISPLAY:London AC Worthing:London AC Dover:London TC TIMBA
COORD:N051.26.17.000:E001.07.24.000
COORD:N051.24.24.000:E001.37.27.000