EGPF Glasgow SMAA                   S999.00.00.000 E999.00.00.000 S999.00.00.000 E999.00.00.000
							N056.32.18.001 W004.26.01.000 N056.31.40.906 W004.38.36.621
							N056.31.40.906 W004.38.36.621 N056.29.50.808 W004.50.48.093
							N056.29.50.808 W004.50.48.093 N056.26.51.222 W005.02.12.151
							N056.26.51.222 W005.02.12.151 N056.22.47.865 W005.12.27.256
							N056.22.47.865 W005.12.27.256 N056.17.48.447 W005.21.14.343
							N056.17.48.447 W005.21.14.343 N056.12.02.397 W005.28.17.437
							N056.12.02.397 W005.28.17.437 N056.05.40.536 W005.33.24.135
							N056.05.40.536 W005.33.24.135 N055.58.54.710 W005.36.25.914
							N055.58.54.710 W005.36.25.914 N055.51.57.402 W005.37.18.285
							N055.51.57.402 W005.37.18.285 N055.45.01.336 W005.36.00.805
							N055.45.01.336 W005.36.00.805 N055.38.19.086 W005.32.36.943
							N055.38.19.086 W005.32.36.943 N055.32.02.703 W005.27.13.849
							N055.32.02.703 W005.27.13.849 N055.26.23.374 W005.20.02.024
							N055.26.23.374 W005.20.02.024 N055.21.31.110 W005.11.14.929
						    N055.21.31.110 W005.11.14.929 N055.17.34.477 W005.01.08.540
							N055.17.34.477 W005.01.08.540 N055.14.40.373 W004.50.00.874
							N055.14.40.373 W004.50.00.874 N055.12.53.853 W004.38.11.495
							N055.12.53.853 W004.38.11.495 N055.12.18.001 W004.26.01.000
							N055.12.18.001 W004.26.01.000 N055.12.53.853 W004.13.50.504
							N055.12.53.853 W004.13.50.504 N055.14.40.373 W004.02.01.125
							N055.14.40.373 W004.02.01.125 N055.17.34.477 W003.50.53.460
							N055.17.34.477 W003.50.53.460 N055.21.31.110 W003.40.47.070
							N055.21.31.110 W003.40.47.070 N055.26.23.374 W003.31.59.975
							N055.26.23.374 W003.31.59.975 N055.32.02.703 W003.24.48.150
							N055.32.02.703 W003.24.48.150 N055.38.19.086 W003.19.25.056
							N055.38.19.086 W003.19.25.056 N055.45.01.336 W003.16.01.194
							N055.45.01.336 W003.16.01.194 N055.51.57.402 W003.14.43.714
							N055.51.57.402 W003.14.43.714 N055.58.54.710 W003.15.36.086
							N055.58.54.710 W003.15.36.086 N056.05.40.536 W003.18.37.864
							N056.05.40.536 W003.18.37.864 N056.12.02.397 W003.23.44.562
							N056.12.02.397 W003.23.44.562 N056.17.48.447 W003.30.47.657
							N056.17.48.447 W003.30.47.657 N056.22.47.865 W003.39.34.743
							N056.22.47.865 W003.39.34.743 N056.26.51.222 W003.49.49.849
							N056.26.51.222 W003.49.49.849 N056.29.50.808 W004.01.13.907
							N056.29.50.808 W004.01.13.907 N056.31.40.906 W004.13.25.378
							N056.31.40.906 W004.13.25.378 N056.32.18.001 W004.26.01.000
							N056.17.18.001 W004.26.01.000 N056.16.54.967 W004.33.50.225 
							N056.16.54.967 W004.33.50.225 N056.15.46.588 W004.41.24.737
							N056.15.46.588 W004.41.24.737 N056.13.55.006 W004.48.30.325
							N056.13.55.006 W004.48.30.325 N056.11.23.711 W004.54.53.767
							N056.11.23.711 W004.54.53.767 N056.08.17.423 W005.00.23.261
							N056.08.17.423 W005.00.23.261 N056.04.41.928 W005.04.48.807
							N056.04.41.928 W005.04.48.807 N056.00.43.896 W005.08.02.502
							N056.00.43.896 W005.08.02.502 N055.56.30.652 W005.09.58.766
							N055.56.30.652 W005.09.58.766 N055.52.09.954 W005.10.34.463
							N055.52.09.954 W005.10.34.463 N055.49.23.698 W005.10.05.088
							N055.34.29.232 W004.56.55.720 N055.33.05.641 W004.54.25.516
							N055.33.05.641 W004.54.25.516 N055.30.36.973 W004.48.05.480
							N055.30.36.973 W004.48.05.480 N055.28.47.532 W004.41.06.296
							N055.28.47.532 W004.41.06.296 N055.27.40.550 W004.33.40.412
							N055.27.40.550 W004.33.40.412 N055.27.18.001 W004.26.01.000
							N055.27.18.001 W004.26.01.000 N055.27.40.550 W004.18.21.587
							N055.27.40.550 W004.18.21.587 N055.28.47.532 W004.10.55.704
							N055.28.47.532 W004.10.55.704 N055.30.36.973 W004.03.56.519
							N055.30.36.973 W004.03.56.519 N055.33.05.641 W003.57.36.483
							N055.33.05.641 W003.57.36.483 N055.36.09.135 W003.52.06.988
							N055.36.09.135 W003.52.06.988 N055.39.42.003 W003.47.38.034
							N055.39.42.003 W003.47.38.034 N055.43.37.895 W003.44.17.934
							N055.43.37.895 W003.44.17.934 N055.47.49.741 W003.42.13.043
							N055.47.49.741 W003.42.13.043 N055.52.09.954 W003.41.27.536
							N055.52.09.954 W003.41.27.536 N055.56.30.652 W003.42.03.233
							N055.56.30.652 W003.42.03.233 N056.00.43.896 W003.43.59.497
							N056.00.43.896 W003.43.59.497 N056.04.41.928 W003.47.13.193
							N056.04.41.928 W003.47.13.193 N056.08.17.423 W003.51.38.738
							N056.08.17.423 W003.51.38.738 N056.11.23.711 W003.57.08.232
							N056.11.23.711 W003.57.08.232 N056.13.55.006 W004.03.31.674
							N056.13.55.006 W004.03.31.674 N056.15.46.588 W004.10.37.262
							N056.15.46.588 W004.10.37.262 N056.16.54.967 W004.18.11.774
							N056.16.54.967 W004.18.11.774 N056.17.18.001 W004.26.01.000
							N055.49.36.672 W005.06.32.814 N055.48.11.774 W005.06.19.093 
							N055.48.11.774 W005.06.19.093 N055.44.20.022 W005.04.24.505
							N055.44.20.022 W005.04.24.505 N055.40.42.922 W005.01.20.641
							N055.40.42.922 W005.01.20.641 N055.37.26.986 W004.57.13.321
							N055.37.26.986 W004.57.13.321 N055.35.54.797 W004.54.28.080
							N055.35.54.797 W004.54.28.080 N055.34.29.209 W004.56.55.687
							N056.01.10.055 W003.54.08.328 N056.02.14.119 W003.55.00.744
							N056.02.14.119 W003.55.00.744 N056.05.06.305 W003.58.33.469
							N056.05.06.305 W003.58.33.469 N056.07.35.110 W004.02.57.077
							N056.07.35.110 W004.02.57.077 N056.09.35.933 W004.08.03.561
							N056.09.35.933 W004.08.03.561 N056.10.44.547 W004.12.25.610
							N056.10.44.547 W004.12.25.610 N056.06.09.927 W004.15.57.609
							N056.07.18.001 W004.26.01.000 N056.07.04.240 W004.30.41.334
							N056.07.04.240 W004.30.41.334 N056.06.23.383 W004.35.12.989
							N056.06.23.383 W004.35.12.989 N056.05.16.695 W004.39.27.567
							N056.05.16.695 W004.39.27.567 N056.03.46.237 W004.43.17.229
							N056.03.46.237 W004.43.17.229 N056.01.54.802 W004.46.34.941
							N056.01.54.802 W004.46.34.941 N055.59.45.820 W004.49.14.699
							N055.59.45.820 W004.49.14.699 N055.57.23.255 W004.51.11.707
							N055.57.23.255 W004.51.11.707 N055.54.51.471 W004.52.22.516
							N055.54.51.471 W004.52.22.516 N055.50.32.408 W004.52.27.488
							N056.06.09.927 W004.15.57.609 N056.07.04.240 W004.21.20.665
							N056.07.04.240 W004.21.20.665 N056.07.18.001 W004.26.01.000
							N056.04.18.495 W004.25.30.026 N056.07.15.622 W004.25.12.613
							N056.04.18.495 W004.25.30.026 N056.04.07.007 W004.29.44.981
							N056.04.07.007 W004.29.44.981 N056.03.34.362 W004.33.22.054
							N056.03.34.362 W004.33.22.054 N056.03.16.869 W004.34.28.601
							N056.03.16.869 W004.34.28.601 N056.02.20.865 W004.33.49.338
							N056.02.20.865 W004.33.49.338 N056.01.49.187 W004.35.51.599
							N056.01.49.187 W004.35.51.599 N056.00.42.944 W004.38.39.899
							N056.00.42.944 W004.38.39.899 N055.59.21.324 W004.41.04.891
							N055.59.21.324 W004.41.04.891 N055.58.04.917 W004.42.39.598
							N056.00.16.249 W004.48.36.624 N055.58.04.917 W004.42.39.598
							N056.01.10.055 W003.54.08.326 N056.10.00.122 W003.21.55.411
							N055.50.32.411 W004.52.27.473 N055.47.41.924 W005.36.01.233