EGPM Scatsta SMAA                   S999.00.00.000 E999.00.00.000 S999.00.00.000 E999.00.00.000
							N060.23.37.000 W001.42.09.000 N060.36.26.000 W001.04.44.000
							N060.22.12.000 W001.00.19.000 N060.16.34.000 W001.16.49.000
							N060.22.12.000 W001.00.19.000 N060.22.38.892 W000.59.05.786
							N060.22.38.892 W000.59.05.786 N060.23.37.884 W000.57.05.716
							N060.23.37.884 W000.57.05.716 N060.24.46.261 W000.55.28.084
							N060.24.46.261 W000.55.28.084 N060.26.01.960 W000.54.15.876
							N060.26.01.960 W000.54.15.876 N060.27.22.692 W000.53.31.327
							N060.27.22.692 W000.53.31.327 N060.28.46.013 W000.53.15.843
							N060.28.46.013 W000.53.15.843 N060.30.09.393 W000.53.29.957
							N060.30.09.393 W000.53.29.957 N060.31.30.297 W000.54.13.303
							N060.31.30.297 W000.54.13.303 N060.32.46.258 W000.55.24.616
							N060.32.46.258 W000.55.24.616 N060.33.54.957 W000.57.01.773
							N060.33.54.957 W000.57.01.773 N060.34.54.292 W000.59.01.843
							N060.34.54.292 W000.59.01.843 N060.35.42.444 W001.01.21.178
							N060.35.42.444 W001.01.21.178 N060.36.26.000 W001.04.44.000
							N060.23.37.000 W001.42.09.000 N060.23.07.019 W001.42.12.337
							N060.23.07.019 W001.42.12.337 N060.21.43.698 W001.41.56.901
							N060.21.43.698 W001.41.56.901 N060.20.22.966 W001.41.12.483
							N060.20.22.966 W001.41.12.483 N060.19.07.266 W001.40.00.486
							N060.19.07.266 W001.40.00.486 N060.17.58.889 W001.38.23.137
							N060.17.58.889 W001.38.23.137 N060.16.59.896 W001.36.23.414
							N060.16.59.896 W001.36.23.414 N060.16.12.065 W001.34.04.955
							N060.16.12.065 W001.34.04.955 N060.15.36.835 W001.31.31.946
							N060.15.36.835 W001.31.31.946 N060.15.15.264 W001.28.48.995
							N060.15.15.264 W001.28.48.995 N060.15.08.002 W001.26.01.000
							N060.15.08.002 W001.26.01.000 N060.15.15.264 W001.23.13.005
							N060.15.15.264 W001.23.13.005 N060.15.36.835 W001.20.30.054
							N060.15.36.835 W001.20.30.054 N060.16.12.065 W001.17.57.044
							N060.16.12.065 W001.17.57.044 N060.16.34.000 W001.16.49.000